[
    {
      "name": "name",
      "align": "center",
      "label": "Establecimiento",
      "field": "name",
      "sortable": true
    },
    {
      "name": "type",
      "align": "center",
      "label": "Tipo",
      "field": "type",
      "sortable": true
    },
    {
      "name": "percent",
      "align": "center",
      "label": "Comisión",
      "field": "percent",
      "sortable": true
    },

    {
      "name": "contact_person",
      "align": "center",
      "label": "Persona de contacto",
      "field": "contact_person",
      "sortable": true
    },
    {
      "name": "acciones",
      "align": "center",
      "label": "Acciones",
      "field": "acciones"
    }
  ]